Desarrollo del Examen Parcial
…
DatosT <-
  read.csv("https://raw.githubusercontent.com/DeysyCondor/R_2021/master/temperatureDataset.csv") %>% 
  tibble() %>% 
  dplyr::select(DATE, qc00000441) %>% 
  rename( Temp = qc00000441) %>% 
  mutate( DATE = as.Date(DATE, format = "%d/%m/%Y")) %>% 
  arrange(DATE) %>% 
  mutate( Temp = ifelse(Temp == -99.9, NA, Temp))

DatosT

## # A tibble: 31,775 x 2
##    DATE        Temp
##    <date>     <dbl>
##  1 1928-11-02    NA
##  2 1928-11-03    NA
##  3 1928-11-04    NA
##  4 1928-11-05    NA
##  5 1928-11-06    NA
##  6 1928-11-07    NA
##  7 1928-11-08    NA
##  8 1928-11-09    NA
##  9 1928-11-10    NA
## 10 1928-11-11    NA
## # ... with 31,765 more rows
…
3.1 Determine la cantidad de missing values para los aos hidrologicos Sep1983-Agos1984 y Sep1997- Agos1998

Primero creamos una columna que nos indica si los datos presentan missing values, el cul considera que si el valor resulta FALSE, no contiene ningn missing values, en cambio si resulta TRUE, presentan missing values.

DatosT1 <-
  DatosT %>% 
  dplyr::filter(
    DATE >="1983-09-01" & DATE <= "1984-08-31" | 
    DATE >="1997-09-01" & DATE <= "1998-08-31" 
    ) %>% 
  mutate(missVal = sum(is.na(Temp))) #En missVal nos aparece que existe 1 solo NA
DatosT1

## # A tibble: 731 x 3
##    DATE        Temp missVal
##    <date>     <dbl>   <int>
##  1 1983-09-01  24.6       1
##  2 1983-09-02  23         1
##  3 1983-09-03  23.6       1
##  4 1983-09-04  20         1
##  5 1983-09-05  22.6       1
##  6 1983-09-06  23         1
##  7 1983-09-07  20         1
##  8 1983-09-08  22         1
##  9 1983-09-09  20         1
## 10 1983-09-10  22         1
## # ... with 721 more rows
…
DatosT2

## # A tibble: 1,044 x 4
##    DATE       Tmonth missVal Month
##    <date>      <dbl>   <dbl> <chr>
##  1 1928-11-01     NA     100 11   
##  2 1928-12-01     NA     100 12   
##  3 1929-01-01     NA     100 01   
##  4 1929-02-01     NA     100 02   
##  5 1929-03-01     NA     100 03   
##  6 1929-04-01     NA     100 04   
##  7 1929-05-01     NA     100 05   
##  8 1929-06-01     NA     100 06   
##  9 1929-07-01     NA     100 07   
## 10 1929-08-01     NA     100 08   
## # ... with 1,034 more rows
…
3.3 Determine la cantidad de missing values de la serie de tiempo a paso mensual para los aos 2005 y 2010.

Primero creamos una columna (missVal5_10) que nos indica si los datos presentan missing values, el cul considera que si el valor resulta FALSE, no contiene ningn missing values, en cambio si resulta TRUE, presentan missing values.

DatosT3 <-
  DatosT2 %>% 
  dplyr::filter(
    (DATE >="2005-01-01" & DATE <= "2005-12-01") | 
    (DATE >="2010-01-01" & DATE <= "2010-12-01") 
  ) %>% 
  mutate(missVal5_10 = sum(is.na(Tmonth))) #Nos aparece que existe 4 solo NA's

DatosT3

## # A tibble: 24 x 5
##    DATE       Tmonth missVal Month missVal5_10
##    <date>      <dbl>   <dbl> <chr>       <int>
##  1 2005-01-01   20.4     0   01              4
##  2 2005-02-01   20.9     0   02              4
##  3 2005-03-01   18.5     0   03              4
##  4 2005-04-01   20.2     0   04              4
##  5 2005-05-01   21.1     0   05              4
##  6 2005-06-01   21.7     0   06              4
##  7 2005-07-01   22.4     0   07              4
##  8 2005-08-01   22.3     0   08              4
##  9 2005-09-01   NA      16.7 09              4
## 10 2005-10-01   NA     100   10              4
## # ... with 14 more rows
…
Ahora en un solo grfico:

ETAPA1 <- DatosT2 %>% 
  filter(DATE >= "1980-01-01" & DATE < "1995-12-31")%>%
  group_by(Month) %>% summarise(temperatura = mean(Tmonth,na.rm = TRUE),Periodo = "1980-1995")
ETAPA2 <- DatosT2 %>% 
  filter(DATE >= "1996-01-01" & DATE < "2010-12-31")%>%
  group_by(Month) %>% summarise(temperatura = mean(Tmonth,na.rm = TRUE),Periodo = "1996-2010")

DF2 <- rbind(ETAPA1,ETAPA2)
DF2

## # A tibble: 24 x 3
##    Month temperatura Periodo  
##    <chr>       <dbl> <chr>    
##  1 01           20.6 1980-1995
##  2 02           20.4 1980-1995
##  3 03           20.4 1980-1995
##  4 04           20.8 1980-1995
##  5 05           21.5 1980-1995
##  6 06           21.8 1980-1995
##  7 07           22.1 1980-1995
##  8 08           22.4 1980-1995
##  9 09           22.5 1980-1995
## 10 10           21.6 1980-1995
## # ... with 14 more rows
…
Para ambos periodos:

X <- Climatologia("1980-01-01","1995-12-01","1996-01-01" ,"2010-12-01")

## `summarise()` has grouped output by 'Periodo'. You can override using the `.groups` argument.

X

## # A tibble: 24 x 4
## # Groups:   Periodo [2]
##    Periodo  Month Temp_month Meses
##    <chr>    <chr>      <dbl> <chr>
##  1 Periodo1 01          20.6 Jan  
##  2 Periodo1 02          20.4 Feb  
##  3 Periodo1 03          20.4 Mar  
##  4 Periodo1 04          20.8 Apr  
##  5 Periodo1 05          21.5 May  
##  6 Periodo1 06          21.8 Jun  
##  7 Periodo1 07          22.1 Jul  
##  8 Periodo1 08          22.4 Aug  
##  9 Periodo1 09          22.5 Sep  
## 10 Periodo1 10          21.6 Oct  
## # ... with 14 more rows
…
Filtramos el periodo 1980 - 2013:

DatosT10 <- 
  DatosT2 %>% 
  dplyr::filter(
    DATE >= "1980-01-01" & DATE <= "2013-12-01"
  )

DatosT10

## # A tibble: 408 x 4
##    DATE       Tmonth missVal Month
##    <date>      <dbl>   <dbl> <chr>
##  1 1980-01-01   20.6       0 01   
##  2 1980-02-01   21.0       0 02   
##  3 1980-03-01   20.7       0 03   
##  4 1980-04-01   21.1       0 04   
##  5 1980-05-01   22.1       0 05   
##  6 1980-06-01   22.3       0 06   
##  7 1980-07-01   21.6       0 07   
##  8 1980-08-01   22.2       0 08   
##  9 1980-09-01   22.9       0 09   
## 10 1980-10-01   20.3       0 10   
## # ... with 398 more rows
…
