Programando con R
…
a) Todos los alumnos

perc <- df$nota 
quantile(perc, c(.66))

## 66% 
## 5.5

b) Alumnos del grupo C

GC <- filter(df02, grupo == "C")
GC

## # A tibble: 39 x 2
##    grupo  nota
##    <chr> <dbl>
##  1 C       5.5
##  2 C       4.8
##  3 C       3.4
##  4 C       6  
##  5 C       5.9
##  6 C       4.4
##  7 C       5.8
##  8 C       6.2
##  9 C       6.2
## 10 C       5.6
## # ... with 29 more rows
…
Imagen

Descripcin: Mapa de ubicacin de la estacin meteorolgica de Magallanes en el departamento de Piura, Provincia de Sullana, Distrito de Marcavelica, en donde se obtuvo los datos de precipitacin.

datos<-data %>% select(date,qc00000208)  %>% 
  mutate(date = as.Date(x = date,format="%d/%m/%Y")) %>% 
  rename(pp_Mallares = qc00000208,fecha= date) %>% arrange(fecha) %>% as_tibble(data)
datos

## # A tibble: 12,419 x 2
##    fecha      pp_Mallares
##    <date>           <dbl>
##  1 1980-01-01           0
##  2 1980-01-02           0
##  3 1980-01-03           0
##  4 1980-01-04           0
##  5 1980-01-05           0
##  6 1980-01-06           0
##  7 1980-01-07           0
##  8 1980-01-08           0
##  9 1980-01-09           0
## 10 1980-01-10           0
## # ... with 12,409 more rows
…
b. Calcule la serie de tiempo de precipitacin acumulada mensual (si el # de das con missing values, en un mes, supera el 10%, la precipitacin acumulada mensual ser considerado como un NA).

Cargamos la librera stringr que nos permitira 

library(stringr)

pp_acmes<- datos %>% group_by(fecha = str_sub(fecha,1,7)) %>% 
  mutate(missv_p = sum(is.na(pp_Mallares))*100/n()) %>% 
  mutate( missv_na= ifelse(missv_p >= 10,NA, pp_Mallares)) %>% 
  summarise(pp_m=sum(missv_na)) %>% 
  mutate(fecha = as.Date(sprintf("%1$s-01",fecha)))
pp_acmes

## # A tibble: 408 x 2
##    fecha       pp_m
##    <date>     <dbl>
##  1 1980-01-01   0  
##  2 1980-02-01   0.5
##  3 1980-03-01   4.6
##  4 1980-04-01  29  
##  5 1980-05-01   0  
##  6 1980-06-01   0  
##  7 1980-07-01   0  
##  8 1980-08-01   0  
##  9 1980-09-01   0  
## 10 1980-10-01   0  
## # ... with 398 more rows
…
