PRESENTACION_GRUPO1_FINAL.knit
…
Procesamiento:

datos<-data %>% select(date,qc00000208)  %>% 
  mutate(date = as.Date(x = date,format="%d/%m/%Y")) %>% 
  rename(pp_Mallares = qc00000208,fecha= date) %>% 
  arrange(fecha) %>% 
  as_tibble(data)
datos

## # A tibble: 12,419 x 2
##    fecha      pp_Mallares
##    <date>           <dbl>
##  1 1980-01-01           0
##  2 1980-01-02           0
##  3 1980-01-03           0
##  4 1980-01-04           0
##  5 1980-01-05           0
##  6 1980-01-06           0
##  7 1980-01-07           0
##  8 1980-01-08           0
##  9 1980-01-09           0
## 10 1980-01-10           0
## # ... with 12,409 more rows
…
b. Calcule la serie de tiempo de precipitación acumulada mensual (si el # de días con missing values, en un mes, supera el 10%, la precipitación acumulada mensual será considerado como un NA). 
 
 Cargamos la librería stringr que nos permitira utilizar la función str_sub() 

library(stringr)

pp_acmes<- datos %>% group_by(fecha = str_sub(fecha,1,7)) %>% 
  mutate(missv_p = sum(is.na(pp_Mallares))*100/n()) %>% 
  mutate( missv_na= ifelse(missv_p >= 10,NA, pp_Mallares)) %>% 
  summarise(pp_m=sum(missv_na)) %>% 
  mutate(fecha = as.Date(sprintf("%1$s-01",fecha)))
pp_acmes

## # A tibble: 408 x 2
##    fecha       pp_m
##    <date>     <dbl>
##  1 1980-01-01   0  
##  2 1980-02-01   0.5
##  3 1980-03-01   4.6
##  4 1980-04-01  29  
##  5 1980-05-01   0  
##  6 1980-06-01   0  
##  7 1980-07-01   0  
##  8 1980-08-01   0  
##  9 1980-09-01   0  
## 10 1980-10-01   0  
## # ... with 398 more rows
…
También se puede calcular la precipitación media anual, el cúal se realiza de la siguiente forma: 

PPPromedioAnual <- function(Pmin,Pmax){
  PPPromedioAnual1<- dplyr::filter(pp_acmes,str_sub(fecha,1,4) >=Pmin & str_sub(fecha,1,4) <=Pmax)  %>% 
    group_by(fecha = str_sub(fecha,1,4)) %>% 
    summarize(pp_m = sum(pp_m,na.rm = T))
  return(PPPromedioAnual1)}

Lo visualizamos:

PPPromedioAnual(1980,2010)

## # A tibble: 31 x 2
##    fecha   pp_m
##    <chr>  <dbl>
##  1 1980    34.1
##  2 1981    25.9
##  3 1982    30.4
##  4 1983  2119. 
##  5 1984    19.1
##  6 1985     7.5
##  7 1986    27.0
##  8 1987   341. 
##  9 1988    37.2
## 10 1989    14.2
## # ... with 21 more rows
…
e) Poltear (boxplot) la variabilidad de los valores mensuales (Ene-Dic) para el período 1980-2013.

pp_month<- pp_acmes %>% mutate(fecha = as.Date(sprintf("%1$s-01",fecha))) %>% 
  dplyr::filter(fecha >= as.Date("1980-01-01") & fecha <= as.Date("2010-12-31")) %>% 
  mutate( mes = str_sub(fecha,6,7))

pp_month

## # A tibble: 372 x 3
##    fecha       pp_m mes  
##    <date>     <dbl> <chr>
##  1 1980-01-01   0   01   
##  2 1980-02-01   0.5 02   
##  3 1980-03-01   4.6 03   
##  4 1980-04-01  29   04   
##  5 1980-05-01   0   05   
##  6 1980-06-01   0   06   
##  7 1980-07-01   0   07   
##  8 1980-08-01   0   08   
##  9 1980-09-01   0   09   
## 10 1980-10-01   0   10   
## # ... with 362 more rows
…
